<svg width="64" height="64" viewBox="0 0 98 101" fill="none" xmlns="http://www.w3.org/2000/svg">
<path fill-rule="evenodd" clip-rule="evenodd" d="M74.992 33.19C70.2481 22.13 53.7238 12.04 37.239 18.9C25.8143 23.65 14.6861 37.1 19.084 54.72C26.941 86.2 74.1618 86.79 78.6684 48.76C69.9615 46.61 67.7774 43.84 62.0156 39.49C58.2502 36.64 51.7176 30.62 47.9028 28.61L26.348 49.53L24.0749 47.08C27.702 42.45 43.2677 29.44 47.2307 23.52L74.9821 33.2L74.992 33.19ZM55.9673 12.06C75.4663 15.75 91.6349 34.08 87.1777 57.79C83.4913 77.38 64.3974 93.03 42.0323 88.69C22.8791 84.97 7.1553 66.06 11.4149 43.12C14.9727 23.94 33.6614 7.84999 55.9673 12.07V12.06Z" fill="#FBBA00"/>
<path fill-rule="evenodd" clip-rule="evenodd" d="M58.892 68.34L47.9614 68.08L49.1375 58.1L59.8902 57.75L58.892 68.34Z" fill="#2E4A55"/>
<path fill-rule="evenodd" clip-rule="evenodd" d="M60.9385 46.9L60.2566 54.75L49.2568 55.5L50.2945 45.35L58.8433 44.7L61.0176 44.59L60.9385 46.9Z" fill="#2E4A55"/>
<path fill-rule="evenodd" clip-rule="evenodd" d="M46.6573 55.39L36.9424 56.23L37.8714 46.54L47.5666 45.68L46.6573 55.39Z" fill="#2E4A55"/>
<path fill-rule="evenodd" clip-rule="evenodd" d="M46.2915 58.21C45.6293 69.88 47.0821 68.5 35.7661 68.05L37.1201 58.56L46.3014 58.22L46.2915 58.21Z" fill="#2E4A55"/>
<path fill-rule="evenodd" clip-rule="evenodd" d="M85.3496 86.66C81.7126 84.76 80.0523 84.98 75.8125 84.83L82.9875 77.2C83.9857 79.62 83.8869 83.46 85.3594 86.66H85.3496Z" fill="#FBBA00"/>
<path fill-rule="evenodd" clip-rule="evenodd" d="M82.612 22.88C80.7145 21.41 81.0505 21.09 79.2221 19.18C78.0658 17.98 76.781 16.91 75.3184 15.81C79.3803 14.86 80.8429 15.03 84.4897 13.8L82.6219 22.89L82.612 22.88Z" fill="#FBBA00"/>
<path fill-rule="evenodd" clip-rule="evenodd" d="M22.5425 85.12C17.8284 85.62 16.9784 85.36 13.2427 87.07C15.0117 82.27 14.5966 83.04 14.8734 77.67L22.5425 85.12Z" fill="#FBBA00"/>
<path fill-rule="evenodd" clip-rule="evenodd" d="M15.4962 22.98C15.4765 22.96 14.3399 24.39 14.0237 24.12C13.7766 23.91 14.3399 22.02 14.2115 21.84C14.419 18.48 13.747 16.22 12.4819 14.17C16.6328 15.87 17.3048 15.75 21.9399 15.95C20.1313 18.71 17.4629 19.43 15.5061 22.99L15.4962 22.98Z" fill="#FBBA00"/>
<path fill-rule="evenodd" clip-rule="evenodd" d="M52.2114 6.77L44.8486 6.66C46.6967 4.92 47.5763 3.13 48.3571 0C49.7209 3.33 50.7191 4.4 52.2114 6.77Z" fill="#FBBE0F"/>
<path fill-rule="evenodd" clip-rule="evenodd" d="M97.8121 49.69L92.0997 53.55L92.0503 46.54C94.2542 47.91 94.9262 48.61 97.8219 49.69H97.8121Z" fill="#FBBA00"/>
<path fill-rule="evenodd" clip-rule="evenodd" d="M5.32692 54.82L4.56593 54.64L0 51.81L4.03225 49.5C4.21014 49.39 4.71417 49 4.86242 48.89C4.92172 49.36 5.69259 54.91 5.32692 54.82Z" fill="#FBBA00"/>
<path fill-rule="evenodd" clip-rule="evenodd" d="M52.2114 93.4L44.8486 93.51C46.6967 95.25 47.5763 97.04 48.3571 100.17C49.7209 96.84 50.7191 95.77 52.2114 93.4Z" fill="#FBBE0F"/>
</svg>
